EN tlv_pc_ifc NULL C:/fitkitSVN/fpga/chips/architecture_pc/tlv_pc_ifc.vhd sub00/vhpl18 1462350441
PB vypocet_pack vypocet_pack C:/fitkitSVN/apps/demo/LightsOut/fpga/vypocet_pack.vhd sub00/vhpl05 1462350428
AR vga_controller arch_vga_controller C:/fitkitSVN/fpga/ctrls/vga/vga_ctrl.vhd sub00/vhpl24 1462350447
EN keyboard_controller_high NULL C:/fitkitSVN/fpga/ctrls/keyboard/keyboard_ctrl_high.vhd sub00/vhpl34 1462350459
EN spi_reg NULL C:/fitkitSVN/fpga/ctrls/spi/spi_reg.vhd sub00/vhpl38 1462350463
EN random_gen NULL C:/fitkitSVN/apps/demo/LightsOut/fpga/random_gen.vhd sub00/vhpl29 1462350454
PB math_pack math_pack C:/fitkitSVN/fpga/units/math/math_pack.vhd sub00/vhpl12 1462350435
AR vga behavioral C:/fitkitSVN/apps/demo/LightsOut/fpga/vga.vhd sub00/vhpl28 1462350453
PH spi_cfg NULL C:/fitkitSVN/fpga/ctrls/spi/spi_reg.vhd sub00/vhpl37 1462350462
AR net behavioral C:/fitkitSVN/apps/demo/LightsOut/fpga/net.vhd sub00/vhpl26 1462350451
AR spi_adc basic C:/fitkitSVN/fpga/ctrls/spi/spi_adc.vhd sub00/vhpl41 1462350466
AR spi_ctrl arch_spi_ctrl2 C:/fitkitSVN/fpga/ctrls/spi/spi_ctrl.vhd sub00/vhpl17 1462350440
AR spi_adc autoincrement C:/fitkitSVN/fpga/ctrls/spi/spi_adc_autoincr.vhd sub00/vhpl40 1462350465
EN vga_controller NULL C:/fitkitSVN/fpga/ctrls/vga/vga_ctrl.vhd sub00/vhpl23 1462350446
AR keyboard_controller arch_keyboard C:/fitkitSVN/fpga/ctrls/keyboard/keyboard_ctrl.vhd sub00/vhpl22 1462350445
EN vga NULL C:/fitkitSVN/apps/demo/LightsOut/fpga/vga.vhd sub00/vhpl27 1462350452
EN net NULL C:/fitkitSVN/apps/demo/LightsOut/fpga/net.vhd sub00/vhpl25 1462350450
AR random_gen behavioral C:/fitkitSVN/apps/demo/LightsOut/fpga/random_gen.vhd sub00/vhpl30 1462350455
PH mat_pack NULL C:/fitkitSVN/apps/demo/LightsOut/fpga/mat_pack.vhd sub00/vhpl00 1462350423
AR bcd behavioral C:/fitkitSVN/apps/demo/LightsOut/fpga/bcd.vhd sub00/vhpl32 1462350457
PB vga_controller_cfg vga_controller_cfg C:/fitkitSVN/fpga/ctrls/vga/vga_config.vhd sub00/vhpl09 1462350432
AR tlv_pc_ifc behav C:/fitkitSVN/apps/demo/LightsOut/fpga/top.vhd sub00/vhpl33 1462350458
EN clkgen NULL C:/fitkitSVN/fpga/units/clkgen/clkgen.vhd sub00/vhpl14 1462350437
EN cell NULL C:/fitkitSVN/apps/demo/LightsOut/fpga/cell.vhd sub00/vhpl06 1462350429
PH vga_controller_cfg NULL C:/fitkitSVN/fpga/ctrls/vga/vga_config.vhd sub00/vhpl08 1462350431
EN keyboard_controller NULL C:/fitkitSVN/fpga/ctrls/keyboard/keyboard_ctrl.vhd sub00/vhpl21 1462350444
PH fpga_cfg NULL C:/fitkitSVN/apps/demo/LightsOut/build/fpga/test_config.vhd sub00/vhpl19 1462350442
EN fpga NULL C:/fitkitSVN/fpga/chips/fpga_xc3s50.vhd sub00/vhpl13 1462350436
EN bcd NULL C:/fitkitSVN/apps/demo/LightsOut/fpga/bcd.vhd sub00/vhpl31 1462350456
PH clkgen_cfg NULL C:/fitkitSVN/fpga/units/clkgen/clkgen_config.vhd sub00/vhpl02 1462350425
PH vypocet_pack NULL C:/fitkitSVN/apps/demo/LightsOut/fpga/vypocet_pack.vhd sub00/vhpl04 1462350427
AR keyboard_controller_high behavioral C:/fitkitSVN/fpga/ctrls/keyboard/keyboard_ctrl_high.vhd sub00/vhpl35 1462350460
AR fpga arch_pc_ifc C:/fitkitSVN/fpga/chips/architecture_pc/arch_pc_ifc.vhd sub00/vhpl36 1462350461
PB mat_pack mat_pack C:/fitkitSVN/apps/demo/LightsOut/fpga/mat_pack.vhd sub00/vhpl01 1462350424
AR cell behavioral C:/fitkitSVN/apps/demo/LightsOut/fpga/cell.vhd sub00/vhpl07 1462350430
EN spi_adc NULL C:/fitkitSVN/fpga/ctrls/spi/spi_adc_entity.vhd sub00/vhpl10 1462350433
PB fpga_cfg fpga_cfg C:/fitkitSVN/apps/demo/LightsOut/build/fpga/test_config.vhd sub00/vhpl20 1462350443
PH math_pack NULL C:/fitkitSVN/fpga/units/math/math_pack.vhd sub00/vhpl11 1462350434
AR spi_reg beh C:/fitkitSVN/fpga/ctrls/spi/spi_reg.vhd sub00/vhpl39 1462350464
EN spi_ctrl NULL C:/fitkitSVN/fpga/ctrls/spi/spi_ctrl.vhd sub00/vhpl16 1462350439
PB clkgen_cfg clkgen_cfg C:/fitkitSVN/fpga/units/clkgen/clkgen_config.vhd sub00/vhpl03 1462350426
AR clkgen behavioral C:/fitkitSVN/fpga/units/clkgen/clkgen.vhd sub00/vhpl15 1462350438
