^E:\VUT_FIT\2014 - 2015 SEMESTER 4\IZG\PROJEKT\PROJEKT\IZG_PROJ\BMP.C
/c /I"..\SDL-1.2.15\include" /ZI /nologo /W3 /WX- /Od /Oy- /D WIN32 /D _DEBUG /D _CONSOLE /D _MBCS /Gm /EHsc /RTC1 /MDd /GS /fp:precise /Zc:wchar_t /Zc:forScope /Fo"Debug\\" /Fd"Debug\vc100.pdb" /Gd /TC /analyze- /errorReport:prompt E:\VUT_FIT\2014 - 2015 SEMESTER 4\IZG\PROJEKT\PROJEKT\IZG_PROJ\BMP.C
^E:\VUT_FIT\2014 - 2015 SEMESTER 4\IZG\PROJEKT\PROJEKT\IZG_PROJ\COLOR.C
/c /I"..\SDL-1.2.15\include" /ZI /nologo /W3 /WX- /Od /Oy- /D WIN32 /D _DEBUG /D _CONSOLE /D _MBCS /Gm /EHsc /RTC1 /MDd /GS /fp:precise /Zc:wchar_t /Zc:forScope /Fo"Debug\\" /Fd"Debug\vc100.pdb" /Gd /TC /analyze- /errorReport:prompt E:\VUT_FIT\2014 - 2015 SEMESTER 4\IZG\PROJEKT\PROJEKT\IZG_PROJ\COLOR.C
^E:\VUT_FIT\2014 - 2015 SEMESTER 4\IZG\PROJEKT\PROJEKT\IZG_PROJ\MAIN.C
/c /I"..\SDL-1.2.15\include" /ZI /nologo /W3 /WX- /Od /Oy- /D WIN32 /D _DEBUG /D _CONSOLE /D _MBCS /Gm /EHsc /RTC1 /MDd /GS /fp:precise /Zc:wchar_t /Zc:forScope /Fo"Debug\\" /Fd"Debug\vc100.pdb" /Gd /TC /analyze- /errorReport:prompt E:\VUT_FIT\2014 - 2015 SEMESTER 4\IZG\PROJEKT\PROJEKT\IZG_PROJ\MAIN.C
^E:\VUT_FIT\2014 - 2015 SEMESTER 4\IZG\PROJEKT\PROJEKT\IZG_PROJ\MODEL.C
/c /I"..\SDL-1.2.15\include" /ZI /nologo /W3 /WX- /Od /Oy- /D WIN32 /D _DEBUG /D _CONSOLE /D _MBCS /Gm /EHsc /RTC1 /MDd /GS /fp:precise /Zc:wchar_t /Zc:forScope /Fo"Debug\\" /Fd"Debug\vc100.pdb" /Gd /TC /analyze- /errorReport:prompt E:\VUT_FIT\2014 - 2015 SEMESTER 4\IZG\PROJEKT\PROJEKT\IZG_PROJ\MODEL.C
^E:\VUT_FIT\2014 - 2015 SEMESTER 4\IZG\PROJEKT\PROJEKT\IZG_PROJ\RENDER.C
/c /I"..\SDL-1.2.15\include" /ZI /nologo /W3 /WX- /Od /Oy- /D WIN32 /D _DEBUG /D _CONSOLE /D _MBCS /Gm /EHsc /RTC1 /MDd /GS /fp:precise /Zc:wchar_t /Zc:forScope /Fo"Debug\\" /Fd"Debug\vc100.pdb" /Gd /TC /analyze- /errorReport:prompt E:\VUT_FIT\2014 - 2015 SEMESTER 4\IZG\PROJEKT\PROJEKT\IZG_PROJ\RENDER.C
^E:\VUT_FIT\2014 - 2015 SEMESTER 4\IZG\PROJEKT\PROJEKT\IZG_PROJ\STUDENT.C
/c /I"..\SDL-1.2.15\include" /ZI /nologo /W3 /WX- /Od /Oy- /D WIN32 /D _DEBUG /D _CONSOLE /D _MBCS /Gm /EHsc /RTC1 /MDd /GS /fp:precise /Zc:wchar_t /Zc:forScope /Fo"Debug\\" /Fd"Debug\vc100.pdb" /Gd /TC /analyze- /errorReport:prompt E:\VUT_FIT\2014 - 2015 SEMESTER 4\IZG\PROJEKT\PROJEKT\IZG_PROJ\STUDENT.C
^E:\VUT_FIT\2014 - 2015 SEMESTER 4\IZG\PROJEKT\PROJEKT\IZG_PROJ\TRANSFORM.C
/c /I"..\SDL-1.2.15\include" /ZI /nologo /W3 /WX- /Od /Oy- /D WIN32 /D _DEBUG /D _CONSOLE /D _MBCS /Gm /EHsc /RTC1 /MDd /GS /fp:precise /Zc:wchar_t /Zc:forScope /Fo"Debug\\" /Fd"Debug\vc100.pdb" /Gd /TC /analyze- /errorReport:prompt E:\VUT_FIT\2014 - 2015 SEMESTER 4\IZG\PROJEKT\PROJEKT\IZG_PROJ\TRANSFORM.C
^E:\VUT_FIT\2014 - 2015 SEMESTER 4\IZG\PROJEKT\PROJEKT\IZG_PROJ\VECTOR.C
/c /I"..\SDL-1.2.15\include" /ZI /nologo /W3 /WX- /Od /Oy- /D WIN32 /D _DEBUG /D _CONSOLE /D _MBCS /Gm /EHsc /RTC1 /MDd /GS /fp:precise /Zc:wchar_t /Zc:forScope /Fo"Debug\\" /Fd"Debug\vc100.pdb" /Gd /TC /analyze- /errorReport:prompt E:\VUT_FIT\2014 - 2015 SEMESTER 4\IZG\PROJEKT\PROJEKT\IZG_PROJ\VECTOR.C
