^C:\DOCUMENTS AND SETTINGS\PROGRAMOVANIE\DESKTOP\ZDROJOVE SUBORY C++\2TI2\F_POLE\F_POLE\F_POLE.CPP
C:\DOCUMENTS AND SETTINGS\PROGRAMOVANIE\DESKTOP\ZDROJOVE SUBORY C++\2TI2\F_POLE\F_POLE\DEBUG\VC100.PDB
C:\DOCUMENTS AND SETTINGS\PROGRAMOVANIE\DESKTOP\ZDROJOVE SUBORY C++\2TI2\F_POLE\F_POLE\DEBUG\F_POLE.OBJ
