^G:\DOKUMENTY\SULI\PROGRAMOVANIE\C++ VLASTNA PRACA\IT PROGRAMOVANIE\VISUAL C++ 2010\177. F_PODIEL\177. F_PODIEL\177. F_PODIEL.CPP|G:\DOKUMENTY\SULI\PROGRAMOVANIE\C++ VLASTNA PRACA\IT PROGRAMOVANIE\VISUAL C++ 2010\177. F_PODIEL\177. F_PODIEL\178. SKALARNYSUCIN.CPP|G:\DOKUMENTY\SULI\PROGRAMOVANIE\C++ VLASTNA PRACA\IT PROGRAMOVANIE\VISUAL C++ 2010\177. F_PODIEL\177. F_PODIEL\184. A_PRIEMER.CPP
G:\DOKUMENTY\SULI\PROGRAMOVANIE\C++ VLASTNA PRACA\IT PROGRAMOVANIE\VISUAL C++ 2010\177. F_PODIEL\177. F_PODIEL\DEBUG\178. SKALARNYSUCIN.OBJ
G:\DOKUMENTY\SULI\PROGRAMOVANIE\C++ VLASTNA PRACA\IT PROGRAMOVANIE\VISUAL C++ 2010\177. F_PODIEL\177. F_PODIEL\DEBUG\184. A_PRIEMER.OBJ
^G:\DOKUMENTY\SULI\PROGRAMOVANIE\C++ VLASTNA PRACA\IT PROGRAMOVANIE\VISUAL C++ 2010\177. F_PODIEL\177. F_PODIEL\177. F_PODIEL.CPP
G:\DOKUMENTY\SULI\PROGRAMOVANIE\C++ VLASTNA PRACA\IT PROGRAMOVANIE\VISUAL C++ 2010\177. F_PODIEL\177. F_PODIEL\DEBUG\VC100.PDB
G:\DOKUMENTY\SULI\PROGRAMOVANIE\C++ VLASTNA PRACA\IT PROGRAMOVANIE\VISUAL C++ 2010\177. F_PODIEL\177. F_PODIEL\DEBUG\177. F_PODIEL.OBJ
^G:\DOKUMENTY\SULI\PROGRAMOVANIE\C++ VLASTNA PRACA\IT PROGRAMOVANIE\VISUAL C++ 2010\177. F_PODIEL\177. F_PODIEL\178. SKALARNYSUCIN.CPP
G:\DOKUMENTY\SULI\PROGRAMOVANIE\C++ VLASTNA PRACA\IT PROGRAMOVANIE\VISUAL C++ 2010\177. F_PODIEL\177. F_PODIEL\DEBUG\VC100.PDB
^G:\DOKUMENTY\SULI\PROGRAMOVANIE\C++ VLASTNA PRACA\IT PROGRAMOVANIE\VISUAL C++ 2010\177. F_PODIEL\177. F_PODIEL\184. A_PRIEMER.CPP
G:\DOKUMENTY\SULI\PROGRAMOVANIE\C++ VLASTNA PRACA\IT PROGRAMOVANIE\VISUAL C++ 2010\177. F_PODIEL\177. F_PODIEL\DEBUG\VC100.PDB
