\relax 
\catcode `"\active 
\catcode `-\active 
\select@language{czech}
\@writefile{toc}{\select@language{czech}}
\@writefile{lof}{\select@language{czech}}
\@writefile{lot}{\select@language{czech}}
\@writefile{toc}{\contentsline {section}{\numberline {1}\'Uvodn\IeC {\'\i } strana}{1}}
\@writefile{toc}{\contentsline {section}{\numberline {2}Tabulky}{1}}
\@writefile{toc}{\contentsline {subsection}{\numberline {2.1}Prost\v red\IeC {\'\i } \ \texttt  {tabbing}}{1}}
\@writefile{toc}{\contentsline {subsection}{\numberline {2.2}Prost\v red\IeC {\'\i } \ \texttt  {tabular}}{1}}
\@writefile{lot}{\contentsline {table}{\numberline {1}{\ignorespaces Tabulka kurz\r u k~dne\v sn\IeC {\'\i }mu dni}}{1}}
\newlabel{tabulka1}{{1}{1}}
\@writefile{lot}{\contentsline {table}{\numberline {2}{\ignorespaces Proto\v ze Kleeneho trojhodnotov\'a logika u\v z je \quotedblbase zastaral\'a\textquotedblleft , uv\'ad\IeC {\'\i }me si zde p\v r\IeC {\'\i }klad \v cty\v rhodnotov\'e logiky}}{1}}
\newlabel{tabulka2}{{2}{1}}
