\relax 
\catcode `"\active 
\catcode `-\active 
\select@language{czech}
\@writefile{toc}{\select@language{czech}}
\@writefile{lof}{\select@language{czech}}
\@writefile{lot}{\select@language{czech}}
\@writefile{toc}{\contentsline {section}{\numberline {1}\'Uvodn\IeC {\'\i } strana}{1}}
\@writefile{toc}{\contentsline {section}{\numberline {2}Tabulky}{1}}
\@writefile{toc}{\contentsline {subsection}{\numberline {2.1}Prost\v red\IeC {\'\i } \ \texttt  {tabbing}}{1}}
\@writefile{toc}{\contentsline {subsection}{\numberline {2.2}Prost\v red\IeC {\'\i } \ \texttt  {tabular}}{1}}
\@writefile{lot}{\contentsline {table}{\numberline {1}{\ignorespaces Tabulka kurz\r u k~dne\v sn\IeC {\'\i }mu dni}}{1}}
\newlabel{tabulka1}{{1}{1}}
\@writefile{lot}{\contentsline {table}{\numberline {2}{\ignorespaces Proto\v ze Kleeneho trojhodnotov\'a logika u\v z je \quotedblbase zastaral\'a\textquotedblleft , uv\'ad\IeC {\'\i }me si zde p\v r\IeC {\'\i }klad \v cty\v rhodnotov\'e logiky}}{1}}
\newlabel{tabulka2}{{2}{1}}
\@writefile{toc}{\contentsline {section}{\numberline {3}Algoritmy}{2}}
\newlabel{algSection}{{3}{2}}
\@writefile{loa}{\contentsline {algocf}{\numberline {1}{\ignorespaces \textsc  {FastSLAM}}}{2}}
\newlabel{algFastSLAM}{{1}{2}}
\@writefile{toc}{\contentsline {section}{\numberline {4}Obr\'azky}{2}}
\@writefile{lof}{\contentsline {figure}{\numberline {1}{\ignorespaces Mal\'y Etiop\'anek a~jeho brat\v r\IeC {\'\i }\v cek}}{2}}
\newlabel{obrazokEtiop}{{1}{2}}
\@writefile{lof}{\contentsline {figure}{\numberline {2}{\ignorespaces Vektorov\'y obr\'azek}}{3}}
\newlabel{obrazokVektor}{{2}{3}}
\@writefile{lof}{\contentsline {figure}{\numberline {3}{\ignorespaces Bitmapov\'y obr\'azek}}{3}}
\newlabel{obrazokBitmap}{{3}{3}}
\@writefile{lof}{\contentsline {figure}{\numberline {4}{\ignorespaces Vektorov\'y obr\'azek v prost\v red\IeC {\'\i } \texttt  {picture}}}{4}}
